<?xml version="1.0" encoding="utf-8"?>
<!-- Generator: Adobe Illustrator 19.1.0, SVG Export Plug-In . SVG Version: 6.00 Build 0)  -->
<svg version="1.1" id="レイヤー_1" xmlns="http://www.w3.org/2000/svg" xmlns:xlink="http://www.w3.org/1999/xlink" x="0px"
	 y="0px" viewBox="-164 42.3 512 512" style="enable-background:new -164 42.3 512 512;" xml:space="preserve">
<style type="text/css">
	.st0{fill:#7C8081;}
</style>
<g>
	<path class="st0" d="M-3.7,72.8c-3.2-3.2-7.1-4.8-11.5-4.8s-8.3,1.6-11.5,4.8c-6.4,6.4-6.4,16.7,0,23l202.4,202.4L-26.7,500.7
		c-6.4,6.4-6.4,16.7,0,23s16.7,6.4,23,0l214.3-213.9c6.4-6.4,6.4-16.7,0-23L-3.7,72.8z"/>
</g>
</svg>
